Timestep	0	2	3	4	5	6	7	9	12	16	23
Akkermansia	0.00056424	5.99E-05	4.95E-05	0.00017785	1.6581	0.84491	0.36704	6.35E-05	0.00012005	5.08E-05	6.16E-06
Barnesiella	0.067426	0.00022153	0.0001833	0.00065826	0.0015076	0.00063935	0.00020535	0.00023497	0.00044429	0.00018814	2.28E-05
Blautia	0.0004514	5.80E-05	0.0013808	1.0803	1.1454	1.2151	0.13789	0.10544	0.3256	0.21501	0.0058109
Clinda	1	1	1	1	1	1	1	1	1	1	1
Clostridium_difficile	0	0	0	0	0	0	0	0	0	0	0
Coprobacillus	0.0002257	0.00011283	9.34E-05	0.0021251	0.00076787	0.00032564	0.00010459	0.00011967	0.00022629	9.58E-05	1.16E-05
Enterobacteriaceae	4.59E-05	0.67226	0.49195	0.204	0.50942	0.018577	0.29589	0.44604	0.44034	0.070052	0.0035308
Enterococcus	1.98E-05	0.0023839	0.0011835	0.0092087	0.0016224	0.0020641	0.00088395	0.0015171	0.00047812	7.12E-05	4.90E-05
Lachnospiraceae	0.086895	4.68E-05	3.88E-05	0.00013926	0.000319	0.00013533	4.34E-05	4.97E-05	9.40E-05	3.98E-05	4.82E-06
Lachnospiraceae_other	0.020934	0.00014686	0.00012152	0.00043639	0.00099949	0.00042385	0.00013613	0.00015577	0.00029454	0.00012472	1.51E-05
Mollicutes	0.00039497	8.34E-05	0.00019725	0.00024791	0.00056781	0.0002408	0.010386	0.071306	0.014822	0.068227	0.025156
Other	0.033064	0.00023839	0.0021698	0.078628	0.029203	0.0013761	0.013258	0.0032871	0.0066935	0.0038467	0.00014711
