Timestep	0	2	6	13
Akkermansia	0	0	0	0
Barnesiella	2.5396	5.1404	2.4626	1.6281
Blautia	0.0085261	0.014388	0.016309	0.043974
Clinda	0	0	0	0
Clostridium_difficile	0.00096746	0.0020553	0.00099644	0.0007938
Coprobacillus	0.0085261	0.010277	0.0087817	0.00031107
Enterobacteriaceae	0	0	0	0
Enterococcus	0	0	0	0
Lachnospiraceae	2.4263	3.1981	2.0662	1.9639
Lachnospiraceae_other	0.68452	0.98656	0.6122	0.36679
Mollicutes	0.01218	0.0082214	0.24714	0.044974
Other	1.8417	2.5651	1.6986	1.3812
