Timestep	0	2	6	13
Akkermansia	0	0	0	0
Barnesiella	1.7504	1.9062	1.8324	1.5969
Blautia	0.0065623	0.011831	0.011938	0.007335
Clinda	0	0	0	0
Clostridium_difficile	0	0	0	0
Coprobacillus	0.0082023	0.027606	0.019399	0.0041915
Enterobacteriaceae	0	0	0	0
Enterococcus	0	0	0	0
Lachnospiraceae	2.6576	1.2462	1.8921	0.85085
Lachnospiraceae_other	0.65623	0.41541	0.71474	0.66854
Mollicutes	0.011483	0.0078875	0.25517	0.0010479
Other	0.97446	1.383	1.725	1.0248
