	Akkermansia	Barnesiella	Blautia	Clostridium_difficile	Coprobacillus	Enterobacteriaceae	Enterococcus	Lachnospiraceae	Mollicutes
Akkermansia	0	0.2766	0.1596	0.1277	0.1277	0.2234	0.1277	0.1277	0.0745
Barnesiella	0.1509	0	0.2075	0.1604	0.1981	0.3019	0.1509	0.1604	0.0943
Blautia	0.2065	0.3032	0	0.071	0.0774	0.2968	0.129	0.071	0.0903
Clostridium_difficile	0.2362	0.3701	0.1339	0	0.126	0.3228	0.1654	0.1575	0.0945
Coprobacillus	0.2813	0.5	0.1771	0.1042	0	0.4063	0.2396	0.1771	0.1146
Enterobacteriaceae	0.1104	0.1948	0.0714	0.0779	0.0909	0	0.0714	0.0455	0.0584
Enterococcus	0.1765	0.2868	0.1324	0.0882	0.1103	0.2574	0	0.1103	0.0956
Lachnospiraceae	0.1899	0.2975	0.0886	0.1076	0.1139	0.2785	0.1582	0	0.0696
Mollicutes	0.3962	0.6132	0.4528	0.4057	0.4245	0.5094	0.3962	0.3774	0
