Akkermansia,Barnesiella,Blautia,Clostridium_difficile,Coprobacillus,Enterobacteriaceae,Enterococcus,Lachnospiraceae,Lachnospiraceae_other,Mollicutes,Other
0,1.7504,0.0065623,0,0.0082023,0,0,2.6576,0.65623,0.011483,0.97446
0,1.84075319700461,0.00952707286866359,0,0.0194652157258065,0,0,1.82900433467742,0.507870010080645,0,1.1900454781106
0,1.9062,0.011831,0,0.027606,0,0,1.2462,0.41541,0.0078875,1.383
0,1.92826533698157,0.0129806835253456,0,0.0303289870967742,0,0,1.08628109879032,0.419002615927419,0.0534231414674539,1.5345849625576
0,1.91419942396313,0.0131525170506912,0,0.0286443741935484,0,0,1.25155282258065,0.495811169354839,0.122815673559908,1.64163117511521
0,1.87768379896313,0.0126903420506912,0,0.0243888241935484,0,0,1.57562313508065,0.607251638104839,0.196564743872408,1.70486180011521
0,1.8324,0.011938,0,0.019399,0,0,1.8921,0.71474,0.25517,1.725
0,1.7896323238973,0.0111807474983542,0,0.0151792066820277,0,0,2.06646589861751,0.787135668202765,0.283206009381172,1.70365720210665
0,1.75107610269914,0.0104695016458196,0,0.0119043179723502,0,0,2.09170138248848,0.823071797235023,0.281547018828176,1.64599789335089
0,1.71602942725477,0.00979659466754444,0,0.00941684976958525,0,0,1.99266152073733,0.828624976958525,0.255142194996708,1.55807482554312
0,1.68379038841343,0.00915435878867676,0,0.00755931797235023,0,0,1.79420138248848,0.809871797235023,0.208940704542462,1.44594075049375
0,1.65365707702436,0.00853512623436472,0,0.00617423847926267,0,0,1.52117603686636,0.772888847926267,0.147891714121132,1.31564842001317
0,1.6249275839368,0.00793122922975642,0,0.00510412718894009,0,0,1.19844055299539,0.723752718894009,0.0769443903884134,1.17325058591178
0,1.5969,0.007335,0,0.0041915,0,0,0.85085,0.66854,0.00104789999999988,1.0248
0,1.56898940092166,0.00674004873271889,0,0.00330512016129032,0,0,0.499116935483871,0.612314516129032,0,0.875340622119816
0,1.54107880184332,0.00614509746543779,0,0.00241874032258064,0,0,0.147383870967742,0.556089032258064,0,0.725881244239631
0,1.51316820276498,0.00555014619815668,0,0.00153236048387097,0,0,0,0.499863548387097,0,0.576421866359447
0,1.48525760368664,0.00495519493087558,0,0.000645980645161289,0,0,0,0.443638064516129,0,0.426962488479262
0,1.45734700460829,0.00436024366359447,0,0,0,0,0,0.387412580645161,0,0.277503110599078
0,1.42943640552995,0.00376529239631336,0,0,0,0,0,0.331187096774194,0,0.128043732718894
0,1.40152580645161,0.00317034112903226,0,0,0,0,0,0.274961612903226,0,0
0,1.37361520737327,0.00257538986175115,0,0,0,0,0,0.218736129032258,0,0
0,1.34570460829493,0.00198043859447004,0,0,0,0,0,0.16251064516129,0,0
0,1.31779400921659,0.00138548732718894,0,0,0,0,0,0.106285161290323,0,0
0,2.7665,0.0097317,0,0.0097317,0.001155,0,3.0209,0.5964,0.0083412,1.931
0,2.37270502592166,0.00879119681739631,0,0.00972998938652074,0.00114388138536866,0,3.6179529953917,0.600614245391705,0.0149303796082949,1.86731657546083
0,2.0483,0.0080431,0,0.0093834,0.0011137,0,3.9478,0.58849,0.024129,1.7909
0,1.84569708381336,0.00767414554291475,0,0.00844913776641705,0.00105239289602535,0,3.81884426843318,0.54885926843318,0.0376135065668203,1.69351651065668
0,1.74939729262673,0.00784838796082949,0,0.0070927474078341,0.000975896417050691,0,3.34192603686636,0.491236036866359,0.0533283631336406,1.58492989631336
0,1.72692385512673,0.00872421139832949,0,0.0055818583453341,0.000907146729550691,0,2.70349478686636,0.430304786866359,0.0682850381336405,1.47940333381336
0,1.7458,0.01046,0,0.0041841,0.00086908,0,2.09,0.38075,0.079495,1.3912
0,1.77875049374589,0.0131634941408822,0,0.00311343117182357,0.000879533054641211,0,1.65178324555629,0.354188245556287,0.0846281687294272,1.33145381830151
0,1.81930625411455,0.0167398591178407,0,0.00236912817643186,0.000935945358788677,0,1.39475444371297,0.349964443712969,0.0839882705727452,1.29878169848585
0,1.86619973666886,0.0210436164581962,0,0.00189679670836076,0.00103065703752469,0,1.28871560236998,0.36435560236998,0.0785374833443055,1.28867129690586
0,1.91816339697169,0.0259292876892693,0,0.00164204246214615,0.00115600821593153,0,1.30346872942725,0.393638729427255,0.0692379848584595,1.29661026991442
0,1.97392969058591,0.0312513943383805,0,0.0015504711323239,0.00130433901909151,0,1.40881583278473,0.434090832784727,0.0570519529295589,1.31808627386438
0,2.03223107307439,0.0368644579328506,0,0.00156768841342989,0.0014679895720869,0,1.57455892034233,0.481988920342331,0.0429415653719552,1.34858696510862
0,2.0918,0.042623,0,0.0016393,0.0016393,0,1.7705,0.53361,0.027869,1.3836
0,2.1515801843318,0.0484057884792627,0,0.00171997730414747,0.00181188707373272,0,1.97147407834101,0.585851578341014,0.0126360716589862,1.4193650921659
0,2.21136036866359,0.0541885769585253,0,0.00180065460829493,0.00198447414746544,0,2.17244815668203,0.638093156682028,0,1.4551301843318
0,2.27114055299539,0.059971365437788,0,0.0018813319124424,0.00215706122119816,0,2.37342223502304,0.690334735023042,0,1.4908952764977
0,2.33092073732719,0.0657541539170507,0,0.00196200921658986,0.00232964829493088,0,2.57439631336406,0.742576313364055,0,1.52666036866359
0,2.39070092165899,0.0715369423963134,0,0.00204268652073733,0.00250223536866359,0,2.77537039170507,0.794817891705069,0,1.56242546082949
0,2.45048110599078,0.077319730875576,0,0.00212336382488479,0.00267482244239631,0,2.97634447004608,0.847059470046083,0,1.59819055299539
0,2.51026129032258,0.0831025193548387,0,0.00220404112903226,0.00284740951612903,0,3.1773185483871,0.899301048387097,0,1.63395564516129
0,2.57004147465438,0.0888853078341014,0,0.00228471843317972,0.00301999658986175,0,3.37829262672811,0.951542626728111,0,1.66972073732719
0,2.62982165898617,0.094668096313364,0,0.00236539573732719,0.00319258366359447,0,3.57926670506912,1.00378420506912,0,1.70548582949309
0,2.68960184331797,0.100450884792627,0,0.00244607304147466,0.00336517073732719,0,3.78024078341014,1.05602578341014,0,1.74125092165899
0,2.5396,0.0085261,0.00096746,0.0085261,0,0,2.4263,0.68452,0.01218,1.8417
0,4.11542929147465,0.0118671486175115,0.0016246846514977,0.00954755195564516,0,0,2.90769612615207,0.869504994239631,0,2.28449845910138
0,5.1404,0.014388,0.0020553,0.010277,0,0,3.1981,0.98656,0.0082214,2.5651
0,5.21596720910138,0.0155253867799539,0.00209546170650922,0.0104903624899194,0,0,3.16021080789171,0.986431898041475,0.0515192060339862,2.56626085109447
0,4.55284066820276,0.0157437610599078,0.00183238528801843,0.0102352468548387,0,0,2.87149349078341,0.894575046082949,0.117957868317972,2.35054982718894
0,3.51404379320276,0.0157645048099078,0.00141605122551843,0.00962718279233871,0,0,2.46310442828341,0.755120671082949,0.189257946442972,2.02548888968894
0,2.4626,0.016309,0.000996439999999999,0.0087817,0,0,2.0662,0.6122,0.24714,1.6986
0,1.69268650427913,0.0179487522383147,0.000695042409479921,0.00779797534562212,0,0,1.78668097432521,0.501620842659644,0.277125863528637,1.45696826859776
0,1.22309572086899,0.0206557616853193,0.000519390520078999,0.00670977437788018,0,0,1.62942567478604,0.425897340355497,0.279942471362739,1.30593140223831
0,1.00377386438446,0.0242521521395655,0.000448526714944042,0.0055345098156682,0,0,1.57405681369322,0.37922021724819,0.260118032784727,1.23039025674786
0,0.984667149440422,0.028560047399605,0.000461493377221857,0.00428959437788018,0,0,1.60019710335747,0.355780197498354,0.222180757077024,1.2152456879526
0,1.11572179065174,0.0334015712639895,0.000537332890059249,0.00299244078341014,0,0,1.68746925608953,0.349768005266623,0.170658853522054,1.24539855167874
0,1.34688400263331,0.0385988475312706,0.000655087636603028,0.00166046175115207,0,0,1.81549598420013,0.355374364713627,0.110080531402238,1.30574970375247
0,1.6281,0.043974,0.0007938,0.00031107,0,0,1.9639,0.36679,0.044974,1.3812
0,1.91765829493088,0.0493787985023041,0.000936005299539171,0,0,0,2.11570023041475,0.379173847926267,0,1.4591668202765
0,2.20721658986175,0.0547835970046083,0.00107821059907834,0,0,0,2.26750046082949,0.391557695852535,0,1.537133640553
0,2.49677488479263,0.0601883955069124,0.00122041589861751,0,0,0,2.41930069124424,0.403941543778802,0,1.61510046082949
0,2.7863331797235,0.0655931940092166,0.00136262119815668,0,0,0,2.57110092165899,0.416325391705069,0,1.69306728110599
0,3.07589147465438,0.0709979925115207,0.00150482649769585,0,0,0,2.72290115207373,0.428709239631336,0,1.77103410138249
0,3.36544976958525,0.0764027910138249,0.00164703179723502,0,0,0,2.87470138248848,0.441093087557604,0,1.84900092165899
0,3.65500806451613,0.081807589516129,0.00178923709677419,0,0,0,3.02650161290323,0.453476935483871,0,1.92696774193548
0,3.944566359447,0.0872123880184332,0.00193144239631336,0,0,0,3.17830184331797,0.465860783410138,0,2.00493456221198
0,4.23412465437788,0.0926171865207373,0.00207364769585253,0,0,0,3.33010207373272,0.478244631336406,0,2.08290138248848
0,4.52368294930876,0.0980219850230415,0.00221585299539171,0,0,0,3.48190230414747,0.490628479262673,0,2.16086820276498
0.033082,0.092745,0.00086677,0,0.00014446,2.35e-05,3.68e-05,0.21958,0.032505,0.0014446,0.11138
0,0.0345903172811079,0,0,0.122249525136428,1.22568750020318,0.0184138842608219,0.0813004720513403,0.012157903326026,0.00108783669626747,0.0893080795902113
0.000197160000000016,0.000167890000000004,4.00999999999984e-05,0,0.000253080000000004,0.86914,0.0023581,0.000114669999999983,7.54000000000032e-05,0.00033688,0.0040425
0.051716,0.00012887,0.0072401,0,0.0018101,0.41501,0.0010343,8.8e-05,5.79e-05,0.00051716,0.0025858
0.00947010000000002,0.0023599,0.00473520000000002,0,1.0891,5.0998,0.15152,0.0016118,0.0010598,0.0045446,0.42617
0.50642,0.00085549,2.3947,0,0.0017166,0.42916,0.017166,0.00058431,0.00038419,0.0016475,0.090981
0.31196,0.00068794,2.6006,0,0.00103700000000011,0.24018,0.00138040000000002,0.00046986,0.00030906,0.0013248,0.012423
0.28451,0.00010693,0.11887,0,0.00016119,0.14225,0.003862,7.3e-05,4.8e-05,0.022957,0.0025747
0.175096072144747,0,0,0,0,0.144632079218498,0.000736850067314079,0,0,0.0639515295059276,0.000319436417362124
0.000141129999999989,0.00012018,0.109959999999999,0,0.000181160000000008,0.46902,0.000482279999999999,8.21000000000002e-05,5.39e-05,0.11623,0.010369
0,0.000240281672104071,0.460304872368299,0,0.0141573808355475,0.65793485281276,0.000472970728700404,0.000156933795490068,0.000108276500814716,0.170522992024968,0.0139804230107559
0,0.000242143656063364,0.386309260667994,0,0.0100308613690064,0.673276618382662,0.000297118878948468,0.000160348967313036,0.000108993215931573,0.212101118396854,0.0110271432729448
0.00022081000000011,0.00018803,0.1645,0,0.000283439999999975,0.58179,9.63000000000002e-05,0.00012842,8.44e-05,0.22487,0.0060367
0.0264083142375013,0.000130047096755439,0.0194511728141493,0,0,0.442732165755854,0,9.15344651131531e-05,5.82095995635227e-05,0.19825364058731,0.00267635622058045
0.0283085309929651,7.9670718048489e-05,0,0,0,0.285410142944457,0,5.73322823390814e-05,3.55863287420372e-05,0.143749575385936,0.0011722702242485
0.0161117447519464,3.82189803172943e-05,0,0,0,0.131643423660831,0,2.7766458395469e-05,1.70573935495331e-05,0.0783737224915947,0.0008903241157923
8.24000000000473e-06,7.01000000000003e-06,0.0046869999999998,0,1.05999999999966e-05,0.00325149999999996,1.40999999999999e-05,4.78999999999999e-06,3.14999999999998e-06,0.019142,0.0011964
0,0,0.0287458545941513,0,0.00229371189699954,0,4.437013107753e-05,0,0,0,0.00156316381901763
0,0,0.0424799631118811,0,0.00352399632505423,0,6.18892126467495e-05,0,0,0,0.00189041686442272
0,0,0.0476101165659263,0,0.00387692452898823,0,6.87824196257102e-05,0,0,0,0.00218474426515071
0,0,0.0458571059690239,0,0.00352796775362566,0,6.71749269324638e-05,0,0,0,0.00245273115013701
0,0,0.0389417223339108,0,0.00265259724379067,0,5.91919094850622e-05,0,0,0,0.00270096264831704
0,1.76042988337696e-06,0.0285847566733238,0,0.00142628424430741,0,4.6958542201557e-05,4.35860267625614e-07,8.22859820616396e-07,0.0139879445731862,0.00293602388862623
1.91000000000032e-05,1.63e-05,0.016507,0,2.44999999999968e-05,0.015072,3.26000000000001e-05,1.11e-05,7.3e-06,0.044009,0.0031645
0.00056424,0.067426,0.0004514,0,0.0002257,4.59e-05,1.98e-05,0.086895,0.020934,0.00039497,0.033064
0,0.0250603731690033,0.0962379850765488,0,0.000371425348827545,0.447540864985756,0.00280832667036956,0.0321136899327409,0.0078403635966254,0.000149813383093801,0.0194932499371043
5.98999999999941e-05,0.000221529999999998,5.80000000000118e-05,0,0.00011283,0.67226,0.0023839,4.67999999999996e-05,0.000146859999999999,8.34e-05,0.000238389999999998
4.95e-05,0.0001833,0.0013808,0,9.34e-05,0.49195,0.0011835,3.88e-05,0.00012152,0.00019725,0.0021698
0.00017785000000011,0.00065826,1.0803,0,0.0021251,0.204,0.0092087,0.00013926,0.00043639,0.00024791,0.078628
1.6581,0.0015076,1.1454,0,0.00076787,0.50942,0.0016224,0.000319,0.00099949,0.00056781,0.029203
0.84491,0.00063935,1.2151,0,0.00032564,0.0185770000000002,0.0020641,0.00013533,0.00042385,0.0002408,0.0013761
0.36704,0.00020535,0.13789,0,0.00010459,0.29589,0.00088395,4.34e-05,0.00013613,0.010386,0.013258
0.163810566550258,0.000171104306869918,0,0,3.81748039762957e-05,0.482889950657012,0.000646977861155861,4.28721421855138e-05,0.000111227756079007,0.0434636054061917,0.0126816918966572
6.35000000000496e-05,0.00023497,0.10544,0,0.00011967,0.44604,0.0015171,4.97e-05,0.00015577,0.071306,0.0032871
0,0.000325100356608909,0.317414535613069,0,0.000189927507972765,0.429527942025598,0.00166680588512647,6.5446851121676e-05,0.000216617366689329,0.0653912870010164,0.000166741632214428
0,0.000404359672941694,0.360423559186128,0,0.000223011685591046,0.44367599893958,0.00114698339251695,8.32169981700611e-05,0.000268835195054898,0.0387549928987055,0.00278365299266242
0.000120050000000002,0.00044429,0.3256,0,0.00022629,0.44034,0.00047812,9.4e-05,0.00029454,0.014822,0.0066935
0.0222814666447648,0.000424973663230452,0.288207591690507,0,0.000207240950087819,0.383575461482616,7.67843262256176e-05,9.11721071502095e-05,0.000281319557621029,0.011604789259022,0.00834993509051806
0.0239183038997046,0.000360654085859591,0.260033285313466,0,0.000173787161714842,0.286236647733984,0,7.76563368948947e-05,0.000238646688786778,0.0254662362186505,0.00779855677104712
0.0136387017047921,0.000274114965558933,0.236994836279692,0,0.000133962292484443,0.17337751011836,0,5.87623981921325e-05,0.000181465475559137,0.0473568150689538,0.00598295006605263
5.08000000000071e-05,0.00018814,0.21501,0,9.58e-05,0.070052,7.11999999999999e-05,3.98e-05,0.00012472,0.068227,0.0038467
0,0.000121159702661121,0.190749016265191,0,6.57641362083874e-05,0,0.000143532814808255,2.50691081295446e-05,8.0497477643552e-05,0.0807752794970649,0.00216129548224359
0,7.4191850247879e-05,0.163892062386008,0,4.40393304304861e-05,0,0.000181017517287425,1.4830715803695e-05,4.9457657913157e-05,0.0846921992262536,0.00100984096169344
0,4.39010352726669e-05,0.13487180005318,0,2.92404063306776e-05,0,0.000189462126159025,8.3360730983502e-06,2.94034237044727e-05,0.081416319148879,0.000303344772148495
0,2.6951850247879e-05,0.104120890957436,0,1.99821875733433e-05,0,0.000174674660144568,4.83643008940928e-06,1.8137657913157e-05,0.0723861992262536,0
0,2.00088876859092e-05,0.072071996789506,0,1.48794978228646e-05,0,0.000142463137965569,3.58303685277124e-06,1.34632434348677e-05,0.0590403994196902,0
0,1.97367400991515e-05,0.0391577792401175,0,1.2547160743623e-05,0,9.86355783435415e-05,3.82714346433513e-06,1.31830631652628e-05,0.0428174796905014,0
6.1599999999997e-06,2.28e-05,0.00581090000000001,0,1.16e-05,0.00353080000000013,4.9e-05,4.81999999999999e-06,1.50999999999999e-05,0.025156,0.000147110000000001
0.00073287,0.23636,0.00019451,0,4.36e-06,0.0029315,0.00073287,0.0036644,0.000172,0.00036644,0.76658
0,0.0878199551178535,0.020931730008613,0,0.213560574999905,0.89684145971349,0.0131860677201773,0.00143218908966966,0.00078813059422195,0.000723786729730827,0.333652308354421
0.000238810000000002,0.000419830000000038,0.000222850000000002,0,4.9999999999962e-06,1.0752,0.000839669999999997,5.45000000000003e-05,0.00019707,0.00039213,0.00041983000000001
9.19e-05,0.00012594,8.58e-05,0,0.067076,0.39082,0.001778,2.1e-05,7.59e-05,0.00015097,0.0011314
0.00760640000000001,0.0019756,0.21044,0,2.145,0.23833,0.11409,0.00032936,0.0050708,0.0023681,0.45132
0.97933,0.00054311,0.46772,0,8.29e-06,0.064127,0.00023499,9.06e-05,0.00032718,0.00065104,0.0041822
1.9879,0.0011473,1.4298,0,1.75000000002038e-05,0.070683,0.00049644000000001,0.00019117,0.0006912,0.0013753,0.00023895999999993
0.67456,0.00029915,0.13822,0,4.57e-06,0.25992,0.00076785,4.99e-05,0.00018021,0.00035859,0.0065268
0,0,0,0,0,0.487993814507641,0,0,0,0.050959978063264,0
0.000190249999999725,0.0002606,0.14549,0,3.98000000003299e-06,0.66458,0.000334460000000005,4.35e-05,0.00015699,0.10503,0.0033446
0.0683131962682843,0.000484719927111537,0.443823977145424,0,0.0270814042157786,0.730912368498495,0.00163101788303634,8.2464574010465e-05,0.000347917555042219,0.102565221217833,0.00542727535183518
0.0480154039536258,0.000545741508891099,0.485347024359181,0,0.0189782468442137,0.699076284354058,0.00119214637504673,9.21263367349961e-05,0.000367941682737417,0.0625938487414966,0.00317961178378704
0.000367469999999895,0.00050336,0.40119,0,7.69000000000399e-06,0.59887,0.000217789999999999,8.39e-05,0.00030323,0.023902,0.0032302
0,0.00041068615274088,0.301242538145231,0,0,0.458684066164105,0,6.78189022726195e-05,0.000226248912759806,0.0165749769385624,0.0104624137547692
0,0.000294492709981671,0.210429375746687,0,0,0.301278226752045,0,4.83908885829429e-05,0.000154659983008406,0.0358948195672398,0.0227787590029929
0,0.000174967912231626,0.1324340254748,0,0,0.148004523963962,0,2.87424306017949e-05,9.24235617528023e-05,0.0684427524122973,0.0363365247497202
5.26999999999802e-05,7.23e-05,0.07094,0,1.09999999999924e-06,0.020215,9.27000000000004e-05,1.2e-05,4.35e-05,0.1008,0.047293
0.0113985898200583,2.4304802343217e-06,0.0285363018460384,0,0.00454039219545887,0,0.0003005539240407,6.25358906812671e-07,1.07783233389347e-05,0.122108284214881,0.0525993541983113
0.017507559063826,0,0.00343389294994911,0,0.00698461920180486,0,0.00041184889412855,0,0,0.131751316374542,0.0523822785468526
0.0192524278273514,0,0,0,0.00768295855055678,0,0.000442678069255691,0,0,0.131673305154853,0.0475623446872521
0.0175060162066831,0,0,0,0.00698458777323343,0,0.000409134608414264,0,0,0.123818459231684,0.0390601242611383
0.0131411442978695,0,0.00309891971246185,0,0.00523868440135365,0,0.000327311670596412,0,3.27169176470482e-06,0.110130987280906,0.0277961889101394
0.00703063219695897,2.35341416826596e-05,0.0183661857514082,0,0.00279442596643623,0,0.000213302414794277,4.07714394265395e-06,1.99020451316521e-05,0.0925550979783881,0.0146911102758839
4.72999999999887e-05,6.48e-05,0.036517,0,9.90000000003255e-07,0.029696,8.31999999999997e-05,1.08e-05,3.9e-05,0.0730349999999999,0.000665459999999993
2.94e-05,0.0097622,5.88e-05,0,1.96e-05,1.96e-05,2.49e-06,0.0073633,0.0035543,0.00017625,0.011583
9.55543017032556e-05,0.00407809347572901,0.000143982892743486,0.000992599853443278,0,2.43843394110212,0,0.00351517776940288,0,0.000613338872265973,0.0125795668128959
0.00015848,0.0010183,0.00079905,0.00017064,0.000960949999999994,4.6613,0.00029079,0.001143,0.000294529999999999,0.0010965,0.012573
0.00018786,0.001208,0.0013559,0.0040678,0.075931,4.8786,0.0081357,0.00074197,0.0054235,0.0013007,0.0094916
4.87e-05,2.16999999999999e-05,0.00031671,0.023875,0.003776,0.0599790000000002,0.0015592,0.00012181,2.43999999999999e-05,4.86999999999998e-05,0.0018271
4.64e-05,4.13e-05,0.0053817,0.023706,0.0020878,0.14475,0.0029692,0.00018558,1.19e-05,0.00018558,0.0019022
0.00095807,0.00017071,0.018012,0.081055,0.0019161,0.26443,0.013796,0.00010486,4.92999999999997e-05,0.0034491,0.0059399
0.00021153,0.00018846,0.04421,0.031941,0.00017784,0.56522,0.00084614,0.00011576,5.45e-05,0.00020292,0.0006346
0,0.000218817805484347,0,0,0.000134175208964667,0.992760824170769,0,0.000231938478466101,0.000148448968873375,0.0462661405686293,0
0,0.000286442506300177,0,0,0.00018108939242613,1.39072712298707,0,0.000401079826616952,0.000187876442810399,0.142784792944373,0
0,0.000411965304373833,0,0,0.00031879497140526,1.780891009718,0,0.000603735935534753,0.000201442432310734,0.271348543035801,0
0,0.000616017401631659,0,0,0.000547504366922927,2.18502459763261,0.000579848436492591,0.000820458696301703,0.000217806947874047,0.413547056751487,0.0049411879240105
0.00014287,0.00091923,0.31986,0.0701630000000001,0.00086743,2.6249,0.0072227,0.0010318,0.00026563,0.55097,0.015477
0.000352231639463561,0.00132813415385668,1.0314032997559,0.446105454728096,0.00126975236465235,3.10893054853645,0.0108437084054869,0.00122117754293449,0.000364457258811329,0.672894548275948,0.0293814330137449
0.000435475322579179,0.00179286032738543,1.93474354600634,0.924636134718466,0.00170952424687588,3.59209444874706,0.0119675825935296,0.0013834722423006,0.000497377032923049,0.799347915418076,0.0453115655414231
0.000439173844405207,0.00224943883722146,2.84870201925361,1.4181144973496,0.00213276650566146,4.01601112458414,0.0118695904848075,0.00151643082051642,0.000638363290573244,0.958044824851166,0.0616721652983897
0.0004099,0.0026339,3.5921,1.8389,0.0024855,4.3223,0.011825,0.0016178,0.00076139,1.1767,0.076868
0.000386140632178207,0.00289617591364139,4.02232996514024,2.11777631911846,0.00272570611013286,4.46650127058512,0.0128648994171828,0.00168650782744057,0.000845816077115658,1.47632159159617,0.0896354236314308
0.00037403877477966,0.00304180580120653,4.15106917713883,2.25922400743499,0.0028592083013033,4.4598382184826,0.0150436584440175,0.00172620764661186,0.000892540228529584,1.8510914595985,0.100037135257146
0.000371651509400483,0.00309023066704147,4.02856609485271,2.28614783674991,0.00290379056000506,4.32745489747371,0.0181714671455621,0.00174173412555876,0.000907846108525399,2.28848489127264,0.108467420211432
0.000377035917636803,0.00306089151549225,3.70506917713883,2.22145257886356,0.00287723687273187,4.09449536133974,0.0220585155868746,0.00173792193232615,0.000898017371386726,2.77597717388421,0.115320563828575
0.000388249081084745,0.0029732293509049,3.23082688285412,2.08804300557624,0.00279733122597747,3.78610366386195,0.0265149938330131,0.0017196057349589,0.000869337671397188,3.30104359469887,0.12099085144286
0.000403348081340435,0.00284668517762547,2.65608767085553,1.90882388868828,0.0026818576062356,3.42742385882161,0.0313510919490356,0.00169162020150189,0.000828090662840405,3.85115944098226,0.125872568388573
0.00042039,0.0027007,2.0311,1.7067,0.0025486,3.0436,0.036377,0.0016588,0.00078056,4.4138,0.13036
0.00066397,1.7757,0.48316,0,0.00049792,0.23325,6.64e-05,0.0096459,0.0003336,0.091197,0.075414
0.000219057212703627,0.655603964822353,0.1951353010308,0,0,0.0585432421439024,0,0.00352310700964506,0.000100140044660975,0.0350283250884795,0.031750063705858
0.00019589,0.000258719999999713,0.015005,0.000195000000000001,0.000146899999999993,0.93395,0.0010349,7.39e-05,9.84e-05,0.00129360000000001,0.00595039999999999
0.00056945,0.00041343,0.00044015,0.059412,0.1301,2.3976,0.0067684,0.00021501,0.00028611,0.00068977,0.0060163
0.00017545,9.6400000000018e-05,0.011229,0.14281,0.0029826,0.4716,0.014738,5.01000000000001e-05,6.68e-05,0.005088,0.0007018
0.00016829,4.63e-05,0.0090037,0.04485,0.00016829,0.27616,0.0033658,0.00092559,0.00033658,0.0059741,0.0069842
0.0014055,0.0010204,0.21532,0.15406,0.001054,4.9932,0.0018562,0.00053042,0.00070619,0.0018562,0.10766
0.00039188,0.00028451,0.10972,0.0051755,0.00029388,1.385,3.93e-05,0.00014789,0.0001969,0.00047469,2.79e-05
0,0.000124576620803238,0.0749557793538012,0,0.000753079409773561,0,0.00314227059701747,0,1.54608960918875e-06,0.000323686545971354,0
0.00043672,0.00031706,0.35874,0.09055,0.0003275,1.6103,0.010382,0.00016493,0.00021943,0.000529,0.00461410000000004
0.00378019608947491,0.000722783323348348,1.01989501820422,0.432061647174831,0.000478111080085275,3.07135039702578,0.0179765912965251,0.0017899292637262,0.000542320473238117,0.00114829398174397,0.093215860052316
0.0079098977939393,0.00116743035412821,1.82742980850286,0.886247792920157,0.00105748620709272,3.8274560951927,0.0251886718281673,0.00389782646333228,0.000837445998090635,0.0019073549327413,0.179161041001778
0.01068,0.0014679,2.4779,1.3591,0.0015161,3.9838,0.032042,0.0053403,0.0010159,0.002449,0.22963
0.010503147882196,0.00149035252975513,2.74276985679885,1.77270982028861,0.00145427044950072,3.66335852014042,0.0384971317609921,0.00526409771958418,0.00101553575929843,0.00250825626221859,0.221207410456209
0.00802586776679483,0.00129799365670914,2.69313818299919,2.1135687621012,0.00107168903315216,3.06028207708054,0.044261813235693,0.00399624524663205,0.000881245975877201,0.0021889905248575,0.168095210810084
0.00445315626799626,0.00100329045530858,2.47501241769994,2.38426832286318,0.000717890600227521,2.38651459548039,0.0489805880925474,0.00215883765036388,0.000684683204517374,0.00168727952506766,0.0938996557589167
0.00099001,0.00071871,2.2344,2.5874,0.00074241,1.854,0.052298,0.00037397,0.0004975,0.0011992,0.0222270000000001
0,0.000535056047571284,2.09003282470328,2.72667043151379,0.0014191964477694,1.63094877998037,0.0539596643789204,0,0.000377477488413491,0.000883156177949965,0
0,0.000456479084175603,2.05154060943362,2.81024681771353,0.00271985662294194,1.71063768348628,0.0541154836598775,0,0.0003269110810757,0.000746862251791155,0
0,0.000465466278307449,2.10127752751984,2.84741149948488,0.00454041157095042,2.04261002326348,0.0530164320258652,0,0.000334224760611842,0.0007603599055417,0
0,0.000544504798461317,2.22159775229076,2.84744681771353,0.00677688233722765,2.57640911205771,0.0509134836598775,0,0.000387842509647129,0.000893690823219727,0
0,0.000676081813131702,2.39485545707522,2.81963511328514,0.00932528996720645,3.26157826261471,0.0480576127449081,0,0.000476188310806775,0.00111689668884337,0
0,0.000842684490813098,2.60340481520202,2.77325872708541,0.0120816555063196,4.04766078768023,0.044699793463951,0,0.000587686146715994,0.00140001918643075,0
0.0014143,0.0010268,2.8296,2.7176,0.014942,4.8842,0.041091,0.000534379999999999,0.00071076,0.0017131,0.011206
0.00034809,1.397,0.0045457,0,0.0035356,0.0002671,0.0001156,1.0672,0.20051,0.0020202,0.61869
0.00016310986686351,0.515671154458578,0.00209953628599087,0,0,0,0,0.393918384495024,0.0739890024904482,0.000738784418556598,0.441536915901673
0.00015785,0.000137870000000095,3.79999999999998e-05,0.00017134,1.9199999999997e-05,0.74503,5.25e-05,0.000149799999999978,0.000103199999999998,6.01999999999998e-05,0.32774
0.00048629,0.00042473,0.00011672,0.0035278,0.040217,2.9584,0.00635,0.00046148,0.00031789,0.00018552,0.25189
0.00085068,1.42000000000008e-05,0.00033082,9.45e-05,1.98000000000559e-06,0.0383040000000001,0.022236,2.36000000000053e-05,1.06e-05,9.45e-05,0.0027411
0.00053511,1.89e-05,0.00081843,0.018446,0.0025497,0.022066,0.0016998,9.44e-05,1.42e-05,9.44e-05,0.0065157
0.0011877,0.00071497,0.065322,0.19834,0.01544,2.0511,0.023754,0.00077683,0.00053511,0.0011877,0.44776
0.0011345,0.00099094,0.042801,0.12017,1.2428,2.0297,0.05597,0.0010767,0.00074167,0.00043289,0.0214
0.000712386123376308,0.000843240900295992,0,0.0491506337301073,1.03420789852035,2.01416032104247,0.0375658769303531,0.0008812986256843,0.000552773646961288,0,0
0.00049583,0.00043309,0.045325,0.01295,6.01999999996217e-05,2.7389,0.0001648,0.00047058,0.00032414,0.00018927,0.015108
0.000773199759014866,0.00056280764452593,0.414958129065977,0,0,4.0506868772021,0,0.000628873141239909,0.000460164201160562,0.0412804525325187,0.0310262432205619
0.00131731307290745,0.00106922477935847,0.910604618382826,0,0,5.41005971352933,0,0.00117389276236423,0.000827508047540356,0.0835585095515713,0
0.0017721,0.0015478,1.2856,0.24168,0.000215229999999834,6.181,0.010285,0.0016817,0.0011584,0.082272,0.0257120000000001
0.00186804708288326,0.00168589903241066,1.3559122889285,0.82619436628468,0.165464033726196,5.90561164219989,0.0179652616259865,0.00182518836814617,0.00124706558052747,0.0122628346183921,0.295084211720557
0.0016818668012221,0.0015385161243816,1.18803943202551,1.62458388189228,0.177774238823034,4.83848820398453,0.018826518250527,0.00166458089028928,0.00113571855562013,0,0.740060116646399
0.00137682811894989,0.00125255265416175,0.911111859109763,2.47315145655374,0.101285149508355,3.4123456637769,0.0156797657498041,0.00135693296728774,0.000928569752902735,0,1.27083396324904
0.0011162,0.00097491,0.65426,3.2082,0.000136069999999922,2.0599,0.011336,0.0010593,0.00072983,0.000425990000000001,1.7976
0.00103109516366798,0.000824310210572671,0.52154001898267,3.69991565418505,0,1.12969041241455,0.00809928940681197,0.000898583623508734,0.000623660227612552,0.288273316176704,2.24775375684888
0.00112400135069799,0.000806758016265648,0.516711018215098,3.95401748995502,0,0.633548986132273,0.00624599249399644,0.000881070409793656,0.000614021778744586,0.750050932030095,2.61749588965762
0.00136525005719636,0.000900078817892213,0.618457834322321,4.01010781037909,0,0.499131027602644,0.00554554031482465,0.000982893165058736,0.000684826099476187,1.35677045594739,2.92022833576623
0.00172517277926941,0.00108209801626565,0.805465303929383,3.90778891852644,0,0.654091843275131,0.00576736392256787,0.00118018469550794,0.000819984635887443,2.07944350631581,3.16935303251476
0.00217410101302349,0.00133064101219924,1.05641826366132,3.68666311746626,0,1.02608673959921,0.00668089437049733,0.00144907780734524,0.00100340883405844,2.88908170152257,3.37827191724321
0.00268236625456491,0.00162353320650626,1.35000155014318,3.38633271026772,0,1.54277102302434,0.00805556271188429,0.00176570530677461,0.00121901014006926,3.75669665995489,3.56038692729162
0.0032203,0.0019386,1.6649,3.0464,0.000269719999999985,2.1318,0.0096608,0.0021062,0.0014507,4.6533,3.7291
