Akkermansia,Barnesiella,Blautia,Clinda,Clostridium_difficile,Coprobacillus,Enterobacteriaceae,Enterococcus,Lachnospiraceae,Lachnospiraceae_other,Mollicutes,Other
0.033082,0.092745,0.00086677,1,0,0.00014446,2.35e-05,3.68e-05,0.21958,0.032505,0.0014446,0.11138
0.000197160000000016,0.000167890000000004,4.00999999999984e-05,1,0,0.000253080000000004,0.86914,0.0023581,0.000114669999999983,7.54000000000032e-05,0.00033688,0.0040425
0.051716,0.00012887,0.0072401,1,0,0.0018101,0.41501,0.0010343,8.8e-05,5.79e-05,0.00051716,0.0025858
0.00947010000000002,0.0023599,0.00473520000000002,1,0,1.0891,5.0998,0.15152,0.0016118,0.0010598,0.0045446,0.42617
0.50642,0.00085549,2.3947,1,0,0.0017166,0.42916,0.017166,0.00058431,0.00038419,0.0016475,0.090981
0.31196,0.00068794,2.6006,1,0,0.00103700000000011,0.24018,0.00138040000000002,0.00046986,0.00030906,0.0013248,0.012423
0.28451,0.00010693,0.11887,1,0,0.00016119,0.14225,0.003862,7.3e-05,4.8e-05,0.022957,0.0025747
0.000141129999999989,0.00012018,0.109959999999999,1,0,0.000181160000000008,0.46902,0.000482279999999999,8.21000000000002e-05,5.39e-05,0.11623,0.010369
0.00022081,0.00018803,0.1645,1,0,0.00028344,0.58179,9.63e-05,0.00012842,8.44e-05,0.22487,0.0060367
8.24000000000473e-06,7.01000000000003e-06,0.0046869999999998,1,0,1.05999999999966e-05,0.00325149999999996,1.40999999999999e-05,4.78999999999999e-06,3.14999999999998e-06,0.019142,0.0011964
1.91e-05,1.63e-05,0.016507,1,0,2.45e-05,0.015072,3.26e-05,1.11e-05,7.3e-06,0.044009,0.0031645
